[
  "icon-marker.png",
  "icon-marker-blue.png",
  "icon-marker-green.png",
  "icon-marker-red.png",
  "icon-marker-o.png",
  "icon-marker-o-blue.png",
  "icon-marker-o-green.png",
  "icon-marker-o-red.png",
  "icon-pin.png",
  "icon-pin-blue.png",
  "icon-pin-green.png",
  "icon-pin-red.png"
]
