<?xml version="1.0" encoding="UTF-8" standalone="no"?>
<!-- Created with Inkscape (http://www.inkscape.org/) -->

<svg
   xmlns:dc="http://purl.org/dc/elements/1.1/"
   xmlns:cc="http://creativecommons.org/ns#"
   xmlns:rdf="http://www.w3.org/1999/02/22-rdf-syntax-ns#"
   xmlns:svg="http://www.w3.org/2000/svg"
   xmlns="http://www.w3.org/2000/svg"
   xmlns:sodipodi="http://sodipodi.sourceforge.net/DTD/sodipodi-0.dtd"
   xmlns:inkscape="http://www.inkscape.org/namespaces/inkscape"
   width="64"
   height="64"
   viewBox="0 0 64.000001 64.000001"
   id="svg7260"
   version="1.1"
   inkscape:version="0.91 r13725"
   sodipodi:docname="icon-view-narrow2.svg">
  <defs
     id="defs7262" />
  <sodipodi:namedview
     id="base"
     pagecolor="#ffffff"
     bordercolor="#666666"
     borderopacity="1.0"
     inkscape:pageopacity="0.0"
     inkscape:pageshadow="2"
     inkscape:zoom="5.88"
     inkscape:cx="36.331538"
     inkscape:cy="19.999999"
     inkscape:document-units="px"
     inkscape:current-layer="g7842"
     showgrid="true"
     units="px"
     inkscape:window-width="1920"
     inkscape:window-height="1137"
     inkscape:window-x="1672"
     inkscape:window-y="-8"
     inkscape:window-maximized="1">
    <inkscape:grid
       type="xygrid"
       id="grid7824"
       empspacing="2"
       dotted="false" />
  </sodipodi:namedview>
  <metadata
     id="metadata7265">
    <rdf:RDF>
      <cc:Work
         rdf:about="">
        <dc:format>image/svg+xml</dc:format>
        <dc:type
           rdf:resource="http://purl.org/dc/dcmitype/StillImage" />
        <dc:title></dc:title>
      </cc:Work>
    </rdf:RDF>
  </metadata>
  <g
     inkscape:label="Ebene 1"
     inkscape:groupmode="layer"
     id="layer1"
     transform="translate(0,-988.36216)" />
  <g
     transform="translate(0,-988.36216)"
     id="g7836"
     inkscape:groupmode="layer"
     inkscape:label="Ebene 1 Kopie" />
  <g
     inkscape:label="Ebene 1 Kopie Kopie 2"
     inkscape:groupmode="layer"
     id="g8418"
     transform="translate(0,-988.36216)" />
  <g
     inkscape:label="Ebene 1 Kopie Kopie 1"
     inkscape:groupmode="layer"
     id="g8410"
     transform="translate(0,-988.36216)" />
  <g
     inkscape:label="Ebene 1 Kopie Kopie"
     inkscape:groupmode="layer"
     id="g7842"
     transform="translate(0,-988.36216)">
    <path
       style="fill:none;fill-opacity:1;stroke:#ffffff;stroke-width:6;stroke-linecap:round;stroke-linejoin:round;stroke-miterlimit:4;stroke-dasharray:none;stroke-dashoffset:0;stroke-opacity:1"
       id="path8402"
       sodipodi:type="arc"
       sodipodi:cx="-12.599751"
       sodipodi:cy="1020.2587"
       sodipodi:rx="25.093098"
       sodipodi:ry="32.511604"
       sodipodi:start="2.412045"
       sodipodi:end="3.8606683"
       d="m -31.306053,1041.9288 a 25.093098,32.511604 0 0 1 -0.174119,-43.08512"
       sodipodi:open="true"
       transform="scale(-1,1)" />
    <g
       id="g4141"
       transform="translate(0,5.5480101)">
      <path
         style="fill:none;fill-rule:evenodd;stroke:#ffffff;stroke-width:8;stroke-linecap:round;stroke-linejoin:miter;stroke-miterlimit:4;stroke-dasharray:none;stroke-opacity:1"
         d="M 55.938289,1025.4016 8.7415591,1014.9868"
         id="path8420"
         inkscape:connector-curvature="0" />
      <path
         style="fill:none;fill-rule:evenodd;stroke:#ffffff;stroke-width:8;stroke-linecap:round;stroke-linejoin:miter;stroke-miterlimit:4;stroke-dasharray:none;stroke-opacity:1"
         d="m 8.401818,1014.6416 47.196759,-10.4149"
         id="path7846"
         inkscape:connector-curvature="0" />
    </g>
  </g>
</svg>
