<?xml version="1.0" encoding="UTF-8" standalone="no"?>
<!-- Created with Inkscape (http://www.inkscape.org/) -->

<svg
   xmlns:dc="http://purl.org/dc/elements/1.1/"
   xmlns:cc="http://creativecommons.org/ns#"
   xmlns:rdf="http://www.w3.org/1999/02/22-rdf-syntax-ns#"
   xmlns:svg="http://www.w3.org/2000/svg"
   xmlns="http://www.w3.org/2000/svg"
   xmlns:sodipodi="http://sodipodi.sourceforge.net/DTD/sodipodi-0.dtd"
   xmlns:inkscape="http://www.inkscape.org/namespaces/inkscape"
   id="svg2"
   xml:space="preserve"
   viewBox="0 0 39.999992 43.893562"
   version="1.1"
   sodipodi:docname="clusterSelectedIcon.svg"
   inkscape:version="0.92.1 r15371"><sodipodi:namedview
     pagecolor="#ffffff"
     bordercolor="#666666"
     borderopacity="1"
     objecttolerance="10"
     gridtolerance="10"
     guidetolerance="10"
     inkscape:pageopacity="0"
     inkscape:pageshadow="2"
     inkscape:window-width="1920"
     inkscape:window-height="1017"
     id="namedview47"
     showgrid="false"
     inkscape:zoom="5.3765889"
     inkscape:cx="-41.452469"
     inkscape:cy="51.48058"
     inkscape:window-x="1912"
     inkscape:window-y="-8"
     inkscape:window-maximized="1"
     inkscape:current-layer="svg2" /><metadata
     id="metadata8"><rdf:RDF><cc:Work
         rdf:about=""><dc:format>image/svg+xml</dc:format><dc:type
           rdf:resource="http://purl.org/dc/dcmitype/StillImage" /><dc:title></dc:title></cc:Work></rdf:RDF></metadata><defs
     id="defs6"><clipPath
   id="clipPath3384"
   clipPathUnits="userSpaceOnUse"><path
     id="path3386"
     d="m1871.8 2088.4c-207.1 206.9-482.5 320.8-775.3 320.8-292.92 0-568.26-113.9-775.35-320.8-207.09-206.8-321.15-481.8-321.15-774.4 0-401.93 219.84-770.92 573.78-962.94 3.598-1.977 9.328-4.793 16.438-8.18l-93.18-340.08h142.44l518.4 405.58-88.53-190.49 112.38 4.257c272.52 20.973 525.51 141.95 713.58 341.66 191.91 203.82 297.63 470.25 297.63 750.19 0 292.55-114.06 567.57-321.15 774.43z"
     clip-rule="evenodd" /></clipPath><clipPath
   id="clipPath3390"
   clipPathUnits="userSpaceOnUse"><path
     id="path3392"
     d="m0 0h2220v2430h-2220v-2430z" /></clipPath><clipPath
   id="clipPath3400"
   clipPathUnits="userSpaceOnUse"><path
     style="clip-rule:evenodd"
     inkscape:connector-curvature="0"
     id="path3402"
     d="m 675.99,179.9 49.41,156.27 36.633,102.54 c -19.679,9.617 -89.73,48.965 -108.45,59.121 -300,162.77 -486.36,475.52 -486.36,816.17 0,247.93 96.66,481.03 272.16,656.33 175.53,175.3 408.87,271.85 657.09,271.85 248.19,0 481.56,-96.55 657.06,-271.85 175.53,-175.3 272.19,-408.4 272.19,-656.33 0,-237.24 -89.58,-463.03 -252.21,-635.75 -132.8,-141 -303.7,-235.69 -490.5,-273.65 l 81.09,195.56 h -150.93 l -537.15,-420.24 z" /></clipPath><clipPath
   id="clipPath3406"
   clipPathUnits="userSpaceOnUse"><path
     inkscape:connector-curvature="0"
     id="path3408"
     d="M 0,0 H 2220 V 2430 H 0 Z" /></clipPath></defs><g
     id="g10"
     transform="matrix(1.25 0 0 -1.25 -234.82 419.74)"
     style="stroke:#ff0000;stroke-opacity:1;fill:#df0425;fill-opacity:1"><g
       id="g3348"
       style="stroke:#ff0000;stroke-opacity:1;fill:#df0425;fill-opacity:1" /><g
       id="g3362"
       style="stroke:#ff0000;stroke-opacity:1;fill:#df0425;fill-opacity:1" /><g
       id="g3382"
       clip-path="url(#clipPath3384)"
       transform="matrix(.014592 0 0 .014592 187.85 300.64)"
       style="stroke:#ff0000;stroke-opacity:1;fill:#df0425;fill-opacity:1"><g
         id="g3388"
         clip-path="url(#clipPath3390)"
         style="stroke:#ff0000;stroke-opacity:1;fill:#df0425;fill-opacity:1"><path
           id="path3394"
           d="m0 0h2342.9v2559.2h-2342.9v-2559.2z"
           style="stroke:#ff0000;stroke-opacity:1;fill:#df0425;fill-opacity:1" /></g></g></g><g
     id="g10-8"
     transform="matrix(1.25,0,0,-1.25,-234.82,419.74)"><g
       id="g3348-0" /><g
       id="g3362-9" /><g
       style="fill:#ffffff"
       id="g3398"
       clip-path="url(#clipPath3400)"
       transform="matrix(0.014592,0,0,0.014592,187.85,300.64)"><g
         style="fill:#ffffff"
         id="g3404"
         clip-path="url(#clipPath3406)"><path
           style="fill:#ffffff"
           inkscape:connector-curvature="0"
           id="path3410"
           d="m 17.219,29.894 h 2158.5 v 2362.3 H 17.219 Z" /></g></g></g></svg>
