{
  "mapcontainer": "vcs_map_container",
  "locale": "de",
  "availableLocales": [
    "de",
    "en"
  ],
  "startViewPoint": "startview",
  "projection": {
    "epsg": "25832",
    "proj4": "+proj=utm +zone=32 +ellps=GRS80 +units=m +no_defs"
  },
  "ui": {
    "startRoute": null,
    "content": {
      "show": true,
      "export": {
        "contentPosition": "left",
        "contentPositionFixed": true,
        "show": true
      },
      "drawing": {
        "contentPosition": "left",
        "contentPositionFixed": true,
        "show": true
      },
      "shadow": {
        "contentPosition": "left",
        "contentPositionFixed": true,
        "show": true
      },
      "copyright": {
        "contentPosition": "left",
        "contentPositionFixed": true,
        "show": true
      },
      "iframe": {
        "contentPosition": "center",
        "contentPositionFixed": false,
        "show": true
      },
      "legend": {
        "contentPosition": "left",
        "contentPositionFixed": false,
        "show": true
      },
      "login": {
        "contentPosition": "center",
        "contentPositionFixed": false,
        "show": true
      },
      "logout": {
        "contentPosition": "center",
        "contentPositionFixed": false,
        "show": true
      },
      "pdfexport": {
        "contentPosition": "left",
        "contentPositionFixed": false,
        "show": true
      },
      "planning": {
        "show": true
      },
      "query": {
        "contentPosition": "left",
        "contentPositionFixed": false,
        "show": true
      },
      "settings": {
        "contentPosition": "left",
        "contentPositionFixed": false,
        "show": true
      }
    },
    "search": {
      "activeOnStartup": false
    },
    "toolbox": {
      "show": true,
      "homeButton": {
        "show": true
      },
      "mapButtons": {
        "show": true
      },
      "widgetButtons": {
        "show": true
      },
      "overviewMap": {
        "show": true
      }
    },
    "metaLinks": {
      "links": [
        {
          "url": {
            "de": "templates/de/impressum.html",
            "en": "templates/en/impressum.html"
          },
          "title": {
            "de": "Impressum",
            "en": "Imprint"
          },
          "target": "iframe"
        },
        {
          "url": {
            "de": "templates/de/datenschutzhinweise.html",
            "en": "templates/en/datenschutzhinweise.html"
          },
          "title": {
            "de": "Datenschutz",
            "en": "Privacy"
          },
          "target": "iframe"
        }
      ]
    },
    "mapControls": {
      "show": true,
      "Navigation": {
        "show": true
      },
      "Shadow": {
        "show": true
      }
    },
    "footer": {
      "logoBox": {
        "show": true,
        "text": "<img style='width:130px; float:left; margin-right:1em;' src='images/cesium-logo.png'><div class='meta-link-wrap'><span><a href='#/iframe?iframe=templates%2Fde%2FUberSmartVillages.pdf' class=''>Über Smart Villages</a></span><br><div data-v-4fe1bbd5='' class='meta-link-wrap'><span data-v-4fe1bbd5='' class='meta-link'><a href='#/iframe?iframe=templates%2Fde%2Fimpressum.html' class=''>Impressum</a></span><span data-v-4fe1bbd5='' class='meta-link'><a href='#/iframe?iframe=templates%2Fde%2Fdatenschutzhinweise.pdf' class=''>Datenschutzhinweise</a></span><span data-v-4fe1bbd5='' class='meta-link'><a href='#/iframe?iframe=templates%2Fde%2Fnutzungsbedingungen.html' class=''>Nutzungsbedingungen</a></span></div></div></div></div>"
      },
      "show": true
    },
    "header": {
      "headerButtons": {
        "show": true,
        "help": true
      },
      "show": true,
      "logoBox": null,
      "title": "<big><b>Projekt Smart Villages</b></big>"
    }
  },
  "selectBehavior": {
    "highlightStyle": {
      "selectionset": {
        "color": "rgb(63, 81, 181)"
      },
      "currentItem": {
        "color": "rgb(244, 67, 54)",
        "pointStyle": {
          "icon": {
            "scale": 1,
            "src": "{layerIcon}"
          }
        },
        "lineStyle": {
          "color": "rgb(131, 245, 44)",
          "width": 1.25
        },
        "polygonStyle": {
          "fill": {
            "color": "rgba(255, 255, 255, 0.4)"
          },
          "stroke": {
            "color": "rgb(131, 245, 44)",
            "width": "1"
          }
        }
      }
    }
  },
  "maps": [
    {
      "name": "Cesium Map",
      "startingmap": true,
      "type": "vcs.vcm.maps.Cesium",
      "webGLaa": true
    },
    {
      "name": "Openlayers Map",
      "startingmap": false,
      "type": "vcs.vcm.maps.Openlayers"
    }
  ],
  "widgets": [
    {
      "type": "vcs.vcm.widgets.DisplayQuality",
      "name": "Anzeigequalität",
      "low": {
        "sse": 4,
        "fxaa": false,
        "fog": {
          "enabled": true,
          "density": 0.0008,
          "screenSpaceErrorFactor": 4
        },
        "resolutionScale": 0.9,
        "layerSSEFactor": 2
      },
      "medium": {
        "sse": 2.333,
        "fxaa": false,
        "fog": {
          "enabled": true,
          "density": 0.0004,
          "screenSpaceErrorFactor": 2
        },
        "resolutionScale": 1,
        "layerSSEFactor": 1.1
      },
      "high": {
        "sse": 1.3333333333333333,
        "fxaa": true,
        "fog": {
          "enabled": true,
          "density": 0,
          "screenSpaceErrorFactor": 0
        },
        "resolutionScale": 1,
        "layerSSEFactor": 0.5
      },
      "defaultQualityLevel": "medium",
      "showAdvancedSettings": false,
      "allowedPostRenderStages": [
        "ambientOcclusion",
        "bloom",
        "blackAndWhite",
        "blur",
        "brightness",
        "depthOfField",
        "nightVision",
        "silhouette"
      ]
    },
    {
      "type": "vcs.vcm.widgets.BalloonInfo",
      "name": "Balloon Info",
      "balloonTypes": [
        {
          "template": [
            "<div class='balloon' id='myBalloon'>",
            "   <h1 class='balloon-title'><%= obj.title %></h1>",
            "   <div class='balloon-content'>",
            "       <%= obj.description %>",
            "   </div>",
            "   <div class='balloon-close-col'>",
            "       <button class='close-balloon'><i class='fa fa-times fa-lg'></i></button>",
            "   </div>",
            "   <div class='dialog-image-balloon'></div>",
            "   <div class='balloon-left-edge'></div>",
            "</div>"
          ],
          "minTop": "balloonHeight + 70",
          "minLeft": "70",
          "layerNames": [],
          "layerTypes": [
            "vcs.vcm.layer.Vector"
          ]
        },
        {
          "template": [
            "<div class='balloon' id='myBalloon'>",
            "<div class='balloon-content'>",
            "<h1 class='balloon-title'>Objektauskunft</h1>",
            "<% if (obj['Gebaeudehoehe']){ %>",
            "<p class='balloon-text'><span> <strong>Gebaeudehoehe</strong> : <%= obj['Gebaeudehoehe'] %> </span><br></p>",
            "<% } %> ",
            "<% if (obj['Dachform']){ %>",
            "<p class='balloon-text'><span> <strong>Dachform</strong> : <%= obj['Dachform'] %> </span><br></p>",
            "<% } %> ",
            "<% if (obj['gml:name']){ %>",
            "<p class='balloon-text'><span> <strong>gml:name</strong> : <%= obj['gml:name'] %> </span><br></p>",
            "<% } %> ",
            "<% if (obj['function']){ %>",
            "<p class='balloon-text'><span> <strong>Funktion</strong> : <%= obj['function'] %> </span><br></p>",
            "<% } %> ",
            "<% if (obj['Address'] && obj['Address']['PostalCode']){ %>",
            "<p class='balloon-text'><span> <strong>PLZ</strong> : <%= obj['Address']['PostalCode'] %> </span><br></p>",
            "<% } %> ",
            "<% if (obj['Address'] && obj['Address']['City']){ %>",
            "<p class='balloon-text'><span> <strong>Ort</strong> : <%= obj['Address']['City'] %> </span><br></p>",
            "<% } %> ",
            "<% if (obj['Address'] && obj['Address']['Street']){ %>",
            "<p class='balloon-text'><span> <strong>Straße</strong> : <%= obj['Address']['Street'] %> </span><br></p>",
            "<% } %> ",
            "<% if (obj['Address'] && obj['Address']['HouseNumber']){ %>",
            "<p class='balloon-text'><span> <strong>Hausnummer</strong> : <%= obj['Address']['HouseNumber'] %> </span><br></p>",
            "<% } %> ",
            "</div>",
            "<div class='balloon-close-col'><button class='close-balloon'><i class='fa fa-times fa-lg'></i></button>",
            "</div><div class='dialog-image-balloon'></div><div class='balloon-left-edge'></div></div>"
          ],
          "layerTypes": [
            null
          ],
          "layerNames": [
            "Gebäude"
          ],
          "minTop": "balloonHeight + 30",
          "minLeft": "70",
          "allAvailable": false,
          "properties": [
            {
              "title": "DatenquelleDachhoehe",
              "name": "DatenquelleDachhoehe"
            },
            {
              "title": "Gemeindeschluessel",
              "name": "Gemeindeschluessel"
            },
            {
              "title": "Gebaeudehoehe",
              "name": "Gebaeudehoehe",
              "active": true
            },
            {
              "title": "Comment",
              "name": "Comment"
            },
            {
              "title": "CreationDate",
              "name": "CreationDate"
            },
            {
              "title": "Dachform",
              "name": "Dachform",
              "active": true
            },
            {
              "title": "Modified",
              "name": "Modified"
            },
            {
              "title": "DatenquelleLage",
              "name": "DatenquelleLage"
            },
            {
              "title": "DatenquelleBodenhoehe",
              "name": "DatenquelleBodenhoehe"
            },
            {
              "title": "roofType",
              "name": "roofType"
            },
            {
              "title": "storeysAboveGround",
              "name": "storeysAboveGround"
            },
            {
              "title": "creationDate",
              "name": "creationDate"
            },
            {
              "title": "gml:name",
              "name": "gml:name",
              "active": true
            },
            {
              "title": "externalReference externalObjectName",
              "name": "externalReference externalObjectName"
            },
            {
              "title": "Bodenhoehe",
              "name": "Bodenhoehe"
            },
            {
              "title": "Dachhoehe",
              "name": "Dachhoehe"
            },
            {
              "title": "measuredHeight",
              "name": "measuredHeight"
            },
            {
              "title": "Funktion",
              "name": "function",
              "active": true
            },
            {
              "title": "ClassQuality",
              "name": "ClassQuality"
            },
            {
              "title": "CreationUser",
              "name": "CreationUser"
            },
            {
              "title": "Country",
              "name": "Address.Country",
              "active": false
            },
            {
              "title": "PLZ",
              "name": "Address.PostalCode",
              "active": true
            },
            {
              "title": "Ort",
              "name": "Address.City",
              "active": true
            },
            {
              "title": "Straße",
              "name": "Address.Street",
              "active": true
            },
            {
              "title": "Hausnummer",
              "name": "Address.HouseNumber",
              "active": true
            },
            {
              "title": "AddressLine",
              "name": "Address.AddressLine",
              "active": false
            }
          ],
          "balloonHeader": "Objektauskunft"
        },
		{
          "template": [
            "<div class='balloon' id='myBalloon'>",
            "   <h1 class='balloon-title'>Weginformationen</h1>",
            "   <div class='balloon-content'>",
            "       <%= obj.description %>",
            "   </div>",
			"<% if (obj['objart_txt']){ %>",
            "<p class='balloon-text'><span> <strong>Objektart:</strong> : <%= obj['objart_txt'] %> </span><br></p>",
            "<% } %> ",
            "<% if (obj['nam']){ %>",
            "<p class='balloon-text'><span> <strong>Name</strong> : <%= obj['nam'] %> </span><br></p>",
            "<% } %> ",
           "   <div class='balloon-close-col'>",
            "       <button class='close-balloon'><i class='fa fa-times fa-lg'></i></button>",
            "   </div>",
            "   <div class='dialog-image-balloon'></div>",
            "   <div class='balloon-left-edge'></div>",
            "</div>"
          ],
          "minTop": "balloonHeight + 70",
          "minLeft": "70",
          "layerNames": [
				"Wanderwege_BW",
				"Radwege_BW",
				"Lehrpfade_BW"				
				],
			"layerTypes": [
            "vcs.vcm.widgets.legend.LayerItem"
          ]
        },
        {
          "template": [
            "<div class='balloon' id='myBalloon'>",
            "<div class='balloon-content'>",
            "<h1 class='balloon-title'>Station</h1>",
            "<% if (obj['Name']){ %>",
            "<p class='balloon-text'><span> <strong></strong><%= obj['Name'] %> </span><br></p>",
            "<% } %> ",
            "</div>",
            "<div class='balloon-close-col'><button class='close-balloon'><i class='fa fa-times fa-lg'></i></button>",
            "</div><div class='dialog-image-balloon'></div><div class='balloon-left-edge'></div></div>"
          ],
          "layerTypes": [
            null
          ],
          "layerNames": [
            "Stationen"
          ],
          "minTop": "balloonHeight + 30",
          "minLeft": "70",
          "allAvailable": false,
          "properties": [
            {
              "name": "",
              "title": "",
              "active": false
            },
            {
              "name": "Name",
              "title": "",
              "active": true
            }
          ],
          "balloonHeader": "Station"
        }
      ],
      "excludedLayerNames": []
    },
    {
      "type": "vcs.vcm.widgets.Copyright"
    },
    {
      "type": "vcs.vcm.widgets.AdvancedWalkMode",
      "name": "Advanced walkmode"
    },
    {
      "type": "vcs.vcm.widgets.CreateLink",
      "name": "Link Creator"
    },
    {
      "type": "vcs.vcm.widgets.Locator",
      "name": "Locator",
      "zoomDistance": 1000,
      "style": {
        "image": {
          "circle": {
            "fill": {
              "color": "rgba(255,255,255,1.0)"
            },
            "stroke": {
              "color": "rgba(0,0,0,1.0)",
              "width": 1
            },
            "radius": 5
          }
        }
      }
    },
    {
      "type": "vcs.vcm.widgets.Measurement",
      "name": "Measurements",
      "style": {
        "fill": {
          "color": [
            255,
            255,
            255,
            0.4
          ]
        },
        "stroke": {
          "color": [
            51,
            153,
            204,
            1
          ],
          "width": 1.25,
          "lineDash": null
        },
        "text": {
          "font": "18px sans-serif",
          "fill": {
            "color": [
              51,
              51,
              51,
              1
            ]
          },
          "textBaseline": "bottom",
          "offsetY": -15,
          "offsetX": 0
        },
        "image": {
          "scale": 1,
          "fill": {
            "color": [
              255,
              255,
              255,
              0.4
            ]
          },
          "radius": 5,
          "stroke": {
            "color": [
              0,
              0,
              0,
              1
            ],
            "width": 1,
            "lineDash": null
          }
        }
      },
      "decimalPlaces": 1
    },
    {
      "type": "vcs.vcm.widgets.NavigationControls",
      "name": "NavigationControls",
      "zoomFactor": 2,
      "moveFactor": 1.5,
      "animationDuration": 0.5,
      "tiltFactor": 10,
      "animation": true,
      "showZoomButtons": true,
      "showTiltButtons": true,
      "showHomeButton": true,
      "showCompass": true,
      "rotationPerFrame": 0.5
    },
    {
      "type": "vcs.vcm.widgets.PDFCreator",
      "name": "PDF Creator"
    },
    {
      "useLocalCRS": true,
      "type": "vcs.vcm.widgets.Planning",
      "serviceUrl": "http://h2798989.stratoserver.net/",
      "scenarioId": "hrrFdGBM65TC5E8Pg",
      "projectId": "EW74chTMXGQ68LYwP",
      "showInLegend": false
    },
    {
      "type": "vcs.vcm.widgets.PositionDisplay",
      "name": "Position Display",
      "positionDecimalPlaces": 2,
      "template": null
    },
    {
      "type": "vcs.vcm.widgets.Shadow",
      "name": "Shadows",
      "activateShadowsOnStartup": false,
      "timezone": null
    },
    {
      "type": "vcs.vcm.widgets.search.Search",
      "name": "Search",
      "autocomplete": false,
      "autocompleteRequest": null,
      "resultIcon": null,
      "searchImplementations": [
        {
          "type": "vcs.vcm.widgets.search.Nominatim",
          "name": "a62716d9-1453-4498-87ba-4c887ec49951",
          "url": "https://nominatim.openstreetmap.org/search",
          "city": null,
          "state": null,
          "countrycode": "de",
          "extent": null,
          "limit": 20
        }
      ],
      "extendedSearches": [],
      "showSearchResultToolbar": false 
    },
    {
      "type": "vcs.vcm.widgets.TransparentTerrainMode",
      "name": "Transparent terrain mode",
	  	  "color": [255,255,255]
    },
    {
      "color": [
        255,
        152,
        0
      ],
      "opacity": 0.8,
      "pointRadius": 5,
      "width": 5,
      "type": "vcs.vcm.widgets.Drawing"
    },
    {
      "type": "vcs.vcm.widgets.OverviewMap",
      "name": "Overview Map",
      "layerName": "ATKIS-Basis",
      "minimumHeight": 150,
      "cameraIcon": "",
      "activeOnStartup": false
    },
    {
      "type": "vcs.vcm.widgets.legend.Legend",
      "children": [
        {
          "title": "Daten",
          "type": "vcs.vcm.widgets.legend.ClusterItem",
          "children": [
            {
              "type": "vcs.vcm.widgets.legend.LayerItem",
              "layerName": "DGM",
              "title": "DGM"
            },
            {
              "type": "vcs.vcm.widgets.legend.GroupItem",
              "clickable": true,
              "startOpen": true,
              "title": {
                "de": "Karte",
                "en": "Basemaps"
              },
              "children": [
                {
                  "type": "vcs.vcm.widgets.legend.LayerItem",
                  "layerName": "Maps4BW",
                  "title": "Maps4BW"
                },
                {
                  "type": "vcs.vcm.widgets.legend.LayerItem",
                  "layerName": "ATKIS-Basis",
                  "title": "ATKIS"
                },
                {
                  "type": "vcs.vcm.widgets.legend.LayerItem",
                  "layerName": "DOP",
                  "title": "DOP"
                },
                {
                  "type": "vcs.vcm.widgets.legend.LayerItem",
                  "layerName": "Openstreetmap layer",
                  "infoUrl": "",
                  "title": "Openstreetmap"
                },
                {
                  "type": "vcs.vcm.widgets.legend.LayerItem",
                  "layerName": "ALKIS-Basis",
                  "title": {
                    "de": "Kataster (ALKIS)",
                    "en": "Cadastre (ALKIS)"
                  }
                }
              ]
            },
            {
              "type": "vcs.vcm.widgets.legend.GroupItem",
              "clickable": true,
              "startOpen": false,
              "title": "3D-Objekte",
              "children": [
                {
                  "type": "vcs.vcm.widgets.legend.LayerItem",
                  "layerName": "Gebäude",
                  "title": "Gebäude"
                },
                {
                  "type": "vcs.vcm.widgets.legend.LayerItem",
                  "layerName": "wea2",
                  "infoUrl": "",
                  "title": "Windenergieanlage"
                }
              ]
            },
            {
              "type": "vcs.vcm.widgets.legend.GroupItem",
              "clickable": true,
              "startOpen": false,
              "title": "Energielehrpfad",
              "children": [
                {
                  "type": "vcs.vcm.widgets.legend.LayerItem",
                  "layerName": "Lehrpfad",
                  "title": "Lehrpfad"
                },
                {
                  "type": "vcs.vcm.widgets.legend.LayerItem",
                  "layerName": "Stationen",
                  "title": "Stationen"
                },
                {
                  "type": "vcs.vcm.widgets.legend.LayerItem",
                  "layerName": "Stationen Text",
                  "title": "Stationen Text"
                },
                {
                  "type": "vcs.vcm.widgets.legend.LayerItem",
                  "layerName": "Agrothermie",
                  "title": "Agrothermie"
                },
                {
                  "type": "vcs.vcm.widgets.legend.LayerItem",
                  "layerName": "Rad",
                  "title": "Energiefahrrad"
                }
              ]
            },
            {
              "type": "vcs.vcm.widgets.legend.GroupItem",
              "clickable": true,
              "startOpen": false,
              "title": "Freizeit",
              "children": [
                {
                  "type": "vcs.vcm.widgets.legend.LayerItem",
                  "layerName": "Wanderwege_BW",
                  "title": "Wanderwege (Rot)"
                },
                {
                  "type": "vcs.vcm.widgets.legend.LayerItem",
                  "layerName": "Radwege_BW",
                  "title": "Radwege (Grün)"
                },
                {
                  "type": "vcs.vcm.widgets.legend.LayerItem",
                  "layerName": "Lehrpfade_BW",
                  "title": "Lehrpfade (Orange)"
                }
              ]
            },
            {
              "type": "vcs.vcm.widgets.legend.LayerItem",
              "layerName": "Gemeindegrenze",
              "title": "Gemeindegrenze"
            }
          ]
        },
        {
          "type": "vcs.vcm.widgets.legend.ClusterItem",
          "title": "Orte",
          "children": [
            {
              "type": "vcs.vcm.widgets.legend.ViewpointItem",
              "viewpointName": "Energiefahrrad",
              "infoUrl": "",
              "title": "Energiefahrrad"
            },
            {
              "type": "vcs.vcm.widgets.legend.ViewpointItem",
              "viewpointName": "Agrothermie",
              "infoUrl": "",
              "title": "Agrothermie"
            },
            {
              "type": "vcs.vcm.widgets.legend.ViewpointItem",
              "viewpointName": "Windenergieanlagen",
              "infoUrl": "",
              "title": "Windenergieanlagen"
            }
          ]
        }
      ]
    }
  ],
  "layers": [
    {
      "name": "Gemeindegrenze",
      "url": "http://owsproxy.lgl-bw.de/owsproxy/ows/owsproxy/ows/WFS_LGL-BW_ATKIS_BasisDLM_VerwGr?service=WFS&version=1.0.0&request=GetFeature&typeName=nora:v_at_gemeinde&Filter=%3CFilter%3E%3CPropertyIsEqualTo%3E%3CPropertyName%3Egemeinde_id%3C/PropertyName%3E%3CLiteral%3E8125107%3C/Literal%3E%3C/PropertyIsEqualTo%3E%3C/Filter%3E&outputFormat=application/json",
      "type": "vcs.vcm.layer.GeoJSON",
      "datasourceId": "LLYnBaAivtfpTwkGC",
      "activeOnStartup": false,
      "exclusive": false,
      "projection": {
        "epsg": "25832",
        "proj4": "+proj=utm +zone=32 +ellps=GRS80 +units=m +no_defs"
      },
      "altitudeMode": "clampToGround",
      "style": {
        "image": {
          "circle": {
            "fill": {
              "color": "rgb(255, 255, 255)"
            },
            "stroke": {
              "color": "rgb(0, 0, 0)",
              "width": 1
            },
            "radius": 5
          }
        },
        "stroke": {
          "color": "rgb(255, 103, 0)",
          "width": 1.25
        },
        "fill": {
          "color": "rgba(255, 87, 34, 0.2)"
        }
      },
      "heightAboveGround": null,
      "hiddenObjectIds": [],
      "copyright": {
        "provider": "",
        "url": "",
        "year": ""
      }
    },
    {
      "name": "Rad",
      "url": null,
      "type": "vcs.vcm.layer.cesium.Gltf",
      "datasourceId": "HxRs8tahKPX7RXxKy",
      "activeOnStartup": true,
      "exclusive": false,
      "models": [
        {
          "url": "./datasource-data/Docs/Rad-gruen.glb",
          "longitude": 9.491248,
          "latitude": 49.110234,
          "height": 492.45,
          "heading": -32,
          "pitch": 0,
          "roll": 0,
          "scale": 1.5,
          "allowPicking": true
        }
      ]
    },
    {
      "name": "Agrothermie",
      "url": null,
      "type": "vcs.vcm.layer.cesium.Gltf",
      "datasourceId": "QzKmf9BAFY2vCWysp",
      "activeOnStartup": true,
      "exclusive": false,
      "models": [
        {
          "url": "./datasource-data/Docs/Agrot.glb",
          "longitude": 9.46678,
          "latitude": 49.08593,
          "height": 492.2,
          "heading": 0,
          "pitch": -2,
          "roll": -8,
          "scale": 1,
          "allowPicking": true
        }
      ]
    },
    {
      "name": "wea2",
      "url": "./datasource-data/8360edf8-ebb8-4c71-9573-03920b2d4d47",
      "type": "vcs.vcm.layer.cesium.Buildings",
      "datasourceId": "huvYiQjFqn44dXv9X",
      "activeOnStartup": true,
      "exclusive": false,
      "allowPicking": true,
      "screenSpaceError": 16,
      "screenSpaceErrorMobile": 32
    },
    {
      "name": "Stationen Text",
      "url": "./datasource-data/Docs/Textlabel.json",
      "type": "vcs.vcm.layer.GeoJSON",
      "datasourceId": "ewWK3wbHFYPicCxcd",
      "activeOnStartup": true,
      "exclusive": false,
      "projection": {
        "epsg": "4326",
        "proj4": ""
      },
      "altitudeMode": "none",
      "style": {
        "image": {
          "circle": {
            "fill": {
              "color": "rgb(149, 193, 31)"
            },
            "stroke": {
              "color": "rgb(149, 193, 31)",
              "width": 1
            },
            "radius": 5
          }
        },
        "stroke": {
          "color": "rgb(149, 193, 31)",
          "width": 1.25
        },
        "fill": {
          "color": "rgba(149, 193, 31, 0.4)"
        }
      },
      "heightAboveGround": 30,
      "hiddenObjectIds": [],
      "copyright": {
        "provider": "",
        "url": "",
        "year": ""
      }
    },
    {
      "name": "Stationen",
      "url": "./datasource-data/Docs/Stationen.json",
      "type": "vcs.vcm.layer.GeoJSON",
      "datasourceId": "MQP5q5akYR3aZAXhk",
      "activeOnStartup": true,
      "exclusive": false,
      "projection": {
        "epsg": "4326",
        "proj4": ""
      },
      "altitudeMode": "relativeToGround",
      "style": {
        "image": {
          "icon": {
            "src": "./datasource-data/Docs/img/info-gruen.png",
            "scale": 0.25
          }
        }
      },
      "heightAboveGround": 15
    },
    {
      "name": "Lehrpfad",
      "url": "./datasource-data/Docs/Lehrpfad.json",
      "type": "vcs.vcm.layer.GeoJSON",
      "datasourceId": "NraMznvxHiJ9tF8ex",
      "activeOnStartup": true,
      "exclusive": false,
      "projection": {
        "epsg": "4326",
        "proj4": ""
      },
      "altitudeMode": "clampToGround",
      "style": {
        "stroke": {
          "color": "rgb(149, 193, 31)",
          "width": 4
        },
        "fill": {
          "color": "rgba(255, 255, 255, 0.4)"
        }
      },
      "highlightStyle": {
        "stroke": {
          "color": "rgba(149, 193, 31,0.5)",
          "width": 7
        }
      },
      "heightAboveGround": null,
      "hiddenObjectIds": [],
      "copyright": {
        "provider": "",
        "url": "",
        "year": ""
      }
    },
    {
      "name": "Lehrpfade_BW",
      "type": "vcs.vcm.layer.GeoJSON",
      "maxResolution": 3,
      "exclusive": false,
      "altitudeMode": "clampToGround",
      "activeOnStartup": false,
      "url": "./datasource-data/Docs/Lehrpfade_BW.json",
      "projection": {
        "epsg": "25832",
        "proj4": ""
      },
      "style": {
        "stroke": {
          "color": "rgba(255,165,0,0.5)",
          "width": 4
        },
        "fill": {
          "color": "rgba(255,165,0,0.5)"
        }
      },
      "highlightStyle": {
        "stroke": {
          "color": "rgba(255,165,0,0.5)",
          "width": 7
        }
      }
    },
    {
      "name": "Radwege_BW",
      "type": "vcs.vcm.layer.GeoJSON",
      "maxResolution": 3,
      "exclusive": false,
      "altitudeMode": "clampToGround",
      "activeOnStartup": false,
      "url": "./datasource-data/Docs/Radwege_BW.json",
      "projection": {
        "epsg": "25832",
        "proj4": ""
      },
      "style": {
        "stroke": {
          "color": "rgba(0,255,0,0.5)",
          "width": 4
        },
        "fill": {
          "color": "rgba(0,255,0,0.5)"
        }
      },
      "highlightStyle": {
        "stroke": {
          "color": "rgba(0,255,0,0.5)",
          "width": 7
        }
      }
    },
    {
      "name": "Wanderwege_BW",
      "type": "vcs.vcm.layer.GeoJSON",
      "maxResolution": 3,
      "exclusive": false,
      "altitudeMode": "clampToGround",
      "activeOnStartup": false,
      "url": "./datasource-data/Docs/Wanderwege_BW.json",
      "projection": {
        "epsg": "25832",
        "proj4": ""
      },
      "style": {
        "stroke": {
          "color": "rgba(255,0,0,0.5)",
          "width": 4
        },
        "fill": {
          "color": "rgba(255,0,0,0.5)"
        }
      },
      "highlightStyle": {
        "stroke": {
          "color": "rgba(255,0,0,0.5)",
          "width": 7
        }
      }
    },
    {
      "name": "Gebäude",
      "url": "./datasource-data/6bf16033-f435-486b-9070-c4234c27fff2",
      "type": "vcs.vcm.layer.cesium.Buildings",
      "datasourceId": "rNpRThQejhfiNX5L2",
      "activeOnStartup": true,
      "exclusive": false,
      "allowPicking": true,
      "screenSpaceError": 16,
      "screenSpaceErrorMobile": 32,
      "hiddenObjectIds": [],
      "copyright": {
        "provider": "",
        "url": "",
        "year": ""
      }
    },
     {
      "name": "DOP",
      "url": "https://owsproxy.lgl-bw.de/owsproxy/ows/WMTS_LGL-BW_ATKIS_DOP_20_C?user=ZentrKomp&password=viewerprod",
      "type": "vcs.vcm.layer.Wmts",
      "datasourceId": "ie7PL5NoJpCkSAXgx",
      "activeOnStartup": true,
      "exclusive": "Karte",
      "layer": "DOP_20_C",
      "style": "default",
      "format": "image/jpeg",
      "tileMatrixSetID": "INSPIRE_4326_Quad",
      "tilingSchema": "geographic",
      "matrixIds": [
        "INSPIRE_4326_Quad:0",
        "INSPIRE_4326_Quad:1",
        "INSPIRE_4326_Quad:2",
        "INSPIRE_4326_Quad:3",
        "INSPIRE_4326_Quad:4",
        "INSPIRE_4326_Quad:5",
        "INSPIRE_4326_Quad:6",
        "INSPIRE_4326_Quad:7",
        "INSPIRE_4326_Quad:8",
        "INSPIRE_4326_Quad:9",
        "INSPIRE_4326_Quad:10",
        "INSPIRE_4326_Quad:11",
        "INSPIRE_4326_Quad:12",
        "INSPIRE_4326_Quad:13",
        "INSPIRE_4326_Quad:14",
        "INSPIRE_4326_Quad:15",
        "INSPIRE_4326_Quad:16",
        "INSPIRE_4326_Quad:17",
        "INSPIRE_4326_Quad:18",
        "INSPIRE_4326_Quad:19"
      ],
      "ol3Options": {
        "requestEncoding": "KVP"
      },
      "minLevel": 0,
      "maxLevel": 19,
      "extent": {
        "coordinates": [
          7,
          47,
          11,
          50
        ],
        "epsg": "EPSG:4326",
        "proj4": null
      },
      "copyright": {
        "provider": "Landesamt für Geoinformation und Landentwicklung Baden-Württemberg",
        "url": "www.lgl-bw.de",
        "year": ""
      }
    },
    {
      "name": "Maps4BW",
      "url": "http://owsproxy.lgl-bw.de/owsproxy/ows/TEST_WMTS_LGL-BW_Maps4BW?user=dopdgmViewer&password=dgm2018dop06viewer",
      "type": "vcs.vcm.layer.Wmts",
      "datasourceId": "WYWdhyfjm4F6LcBKK",
      "activeOnStartup": false,
      "exclusive": "Karte",
      "layer": "Maps4BW",
      "style": "default",
      "format": "image/png",
      "tileMatrixSetID": "INSPIRE_4326_Quad",
      "tilingSchema": "geographic",
      "matrixIds": [
        "INSPIRE_4326_Quad:0",
        "INSPIRE_4326_Quad:1",
        "INSPIRE_4326_Quad:2",
        "INSPIRE_4326_Quad:3",
        "INSPIRE_4326_Quad:4",
        "INSPIRE_4326_Quad:5",
        "INSPIRE_4326_Quad:6",
        "INSPIRE_4326_Quad:7",
        "INSPIRE_4326_Quad:8",
        "INSPIRE_4326_Quad:9",
        "INSPIRE_4326_Quad:10",
        "INSPIRE_4326_Quad:11",
        "INSPIRE_4326_Quad:12",
        "INSPIRE_4326_Quad:13",
        "INSPIRE_4326_Quad:14",
        "INSPIRE_4326_Quad:15",
        "INSPIRE_4326_Quad:16",
        "INSPIRE_4326_Quad:17",
        "INSPIRE_4326_Quad:18",
        "INSPIRE_4326_Quad:19"
      ],
      "ol3Options": {
        "requestEncoding": "KVP"
      },
      "minLevel": 0,
      "maxLevel": 19,
      "extent": {
        "coordinates": [
          7,
          47,
          11,
          50
        ],
        "epsg": "EPSG:4326",
        "proj4": ""
      },
      "copyright": {
        "provider": "LGL BW",
        "url": "www.lgl-bw.de",
        "year": ""
      }
    },
    {
      "name": "ATKIS-Basis",
      "url": "http://owsproxy.lgl-bw.de/owsproxy/ows/TEST_WMTS_LGL-BW_ATKIS_BasisDLM_Basiskarte?user=dopdgmViewer&password=dgm2018dop06viewer",
      "type": "vcs.vcm.layer.Wmts",
      "datasourceId": "",
      "activeOnStartup": false,
      "exclusive": "Karte",
      "layer": "ATKIS_Basis",
      "version": "1.0.0",
      "style": "default",
      "format": "image/png",
      "tileMatrixSetID": "INSPIRE_4326_Quad",
      "tilingSchema": "geographic",
      "matrixIds": [
        "INSPIRE_4326_Quad:0",
        "INSPIRE_4326_Quad:1",
        "INSPIRE_4326_Quad:2",
        "INSPIRE_4326_Quad:3",
        "INSPIRE_4326_Quad:4",
        "INSPIRE_4326_Quad:5",
        "INSPIRE_4326_Quad:6",
        "INSPIRE_4326_Quad:7",
        "INSPIRE_4326_Quad:8",
        "INSPIRE_4326_Quad:9",
        "INSPIRE_4326_Quad:10",
        "INSPIRE_4326_Quad:11",
        "INSPIRE_4326_Quad:12",
        "INSPIRE_4326_Quad:13",
        "INSPIRE_4326_Quad:14",
        "INSPIRE_4326_Quad:15",
        "INSPIRE_4326_Quad:16",
        "INSPIRE_4326_Quad:17",
        "INSPIRE_4326_Quad:18",
        "INSPIRE_4326_Quad:19"
      ],
      "ol3Options": {
        "requestEncoding": "KVP"
      },
      "minLevel": 0,
      "maxLevel": 19,
      "extent": {
        "coordinates": [
          7,
          47,
          11,
          50
        ],
        "epsg": "EPSG:4326",
        "proj4": ""
      },
      "copyright": {
        "provider": "Landesamt für Geoinformation und Landentwicklung Baden-Württemberg",
        "url": "www.lgl-bw.de",
        "year": ""
      }
    },
   {
      "name": "ALKIS-Basis",
      "url": "http://owsproxy.lgl-bw.de/owsproxy/ows/WMS_LGL-BW_ALKIS_Basis_Vertrieb",
      "type": "vcs.vcm.layer.Wms",
      "datasourceId": "cvZP66BwmLGTfPpJK",
      "activeOnStartup": false,
      "exclusive": "Karte",
      "version": "1.1.1",
      "layers": "nora:ALKIS_Basis_Vertrieb,nora:ALKIS_Beschriftung",
      "parameters": "user=ZentrKomp&password=viewerprod&format=image/png",
      "minLevel": 0,
      "maxLevel": 21,
      "featureInfo": null,
      "copyright": {
        "provider": "Landesamt für Geoinformation und Landentwicklung Baden-Württemberg",
        "url": "www.lgl-bw.de",
        "year": ""
      }
    },
    {
      "name": "Openstreetmap layer",
      "type": "vcs.vcm.layer.OpenStreetMap",
      "exclusive": "Karte",
      "activeOnStartup": false,
      "copyright": {
        "provider": "OpenStreetMap contributors",
        "url": "http://www.openstreetmap.org/",
        "year": "2018"
      },
      "hiddenObjectIds": [],
      "opacity": ""
    },
    {
      "name": "DGM",
      "url": "./datasource-data/8afe84cb-6d10-4b39-8cec-4634d606806d",
      "type": "vcs.vcm.layer.cesium.Terrain",
      "datasourceId": "Nzb7kfE6YCHHcoSma",
      "activeOnStartup": true,
      "exclusive": false,
      "requestVertexNormals": true
    }
  ],
  "viewpoints": [
     {
      "name": "startview",
      "cameraPosition": [
        9.449296501809725,
        49.05717543181418,
        6848.292730303247
      ],
      "groundPosition": [
        9.454768741327424,
        49.091858301123715,
        501.03740095941885
      ],
      "distance": 7439.236783868804,
      "heading": 5.915842468203943,
      "pitch": -58.580124389180355,
      "roll": 0.03788171193799632,
      "animate": false
    },
    {
      "name": "Energiefahrrad",
      "cameraPosition": [
        9.490177785343839,
        49.110215840980494,
        542.9665485297629
      ],
      "groundPosition": [
        9.491243722773158,
        49.11021251654071,
        492.28273282377523
      ],
      "distance": 92.87944186974336,
      "heading": 90.2717775404677,
      "pitch": -33.07249620716207,
      "roll": 0.22737187008668316,
      "animate": true
    },
    {
      "name": "Agrothermie",
      "cameraPosition": [
        9.468013100534304,
        49.081495052076214,
        851.3689460797451
      ],
      "groundPosition": [
        9.468013100534304,
        49.08592166908752,
        491.6401763936443
      ],
      "distance": 609.7584836585262,
      "heading": 359.9999999999999,
      "pitch": -36.1558518651298,
      "roll": 360,
      "animate": true
    },
    {
      "name": "Windenergieanlagen",
      "cameraPosition": [
        9.445119162001152,
        49.0911516657819,
        888.0794519647335
      ],
      "groundPosition": [
        9.430843300922792,
        49.099105271885534,
        474.7578962139027
      ],
      "distance": 1428.5119895547143,
      "heading": 310.3164135358324,
      "pitch": -16.824394538455685,
      "roll": 359.8481098376384,
      "animate": false
    }
  ]
}